

		***** single *****
2021-09-02 15:10:09.358  INFO 21608 --- [           main] reactor.Flux.OnAssembly.1                : | onSubscribe([Fuseable] FluxOnAssembly.OnAssemblySubscriber)
2021-09-02 15:10:09.358  INFO 21608 --- [           main] reactor.Flux.OnAssembly.1                : | request(unbounded)
2021-09-02 15:10:09.358  INFO 21608 --- [           main] reactor.Flux.OnAssembly.1                : | onNext(1)
1
Mapping for 1 is done by thread main
Received 1 via main
2021-09-02 15:10:09.358  INFO 21608 --- [           main] reactor.Flux.OnAssembly.1                : | onNext(2)
2
Mapping for 2 is done by thread main
Received 2 via main
2021-09-02 15:10:09.358  INFO 21608 --- [           main] reactor.Flux.OnAssembly.1                : | onNext(3)
3
Mapping for 3 is done by thread main
Received 3 via main
2021-09-02 15:10:09.358  INFO 21608 --- [           main] reactor.Flux.OnAssembly.1                : | onComplete()
2021-09-02 15:10:09.358  INFO 21608 --- [           main] reactor.Flux.OnAssembly.1                : | onSubscribe([Fuseable] FluxOnAssembly.OnAssemblySubscriber)
2021-09-02 15:10:09.358  INFO 21608 --- [           main] reactor.Flux.OnAssembly.1                : | request(unbounded)
2021-09-02 15:10:09.358  INFO 21608 --- [           main] reactor.Flux.OnAssembly.1                : | onNext(1)
1
Mapping for 1 is done by thread main
Received 1 via main
2021-09-02 15:10:09.358  INFO 21608 --- [           main] reactor.Flux.OnAssembly.1                : | onNext(2)
2
Mapping for 2 is done by thread main
Received 2 via main
2021-09-02 15:10:09.358  INFO 21608 --- [           main] reactor.Flux.OnAssembly.1                : | onNext(3)
3
Mapping for 3 is done by thread main
Received 3 via main
2021-09-02 15:10:09.358  INFO 21608 --- [           main] reactor.Flux.OnAssembly.1                : | onComplete()